import Vue from "vue";
import Router from 'vue-router'
import Routers from '~/components/Routers.vue'
Vue.use(Router)
export function createRouter(){
    return new Router({
        mode:'history',
        routes:[
            {
                path:'/',
                component:Routers
            }
            
        ]
    })
}